<svg xmlns="http://www.w3.org/2000/svg" width="44.114" height="31.562" viewBox="0 0 44.114 31.562">
  <g id="Group_32" data-name="Group 32" transform="translate(-432.631 -931.062)">
    <path id="Path_1" data-name="Path 1" d="M433.632,946.609h41.7L461.2,932.475" transform="translate(0 0)" fill="none"  stroke-linecap="round" stroke-linejoin="round" stroke-width="2"/>
    <path id="Path_2" data-name="Path 2" d="M453.372,960.068l13.848-14.6" transform="translate(8.111 1.141)" fill="none" stroke-linecap="round" stroke-width="2"/>
  </g>
</svg>
